﻿


-----------------------------------------------------------------------------------2017-12-01 15:11:53stdClass Object
(
    [Result] => stdClass Object
        (
            [ResultType] => 0
            [ResultCode] => 2001
            [ResultDesc] => The initiator information is invalid.
            [OriginatorConversationID] => 10219-491438-1
            [ConversationID] => AG_20171201_00006b7495855179fac0
            [TransactionID] => LL10000000
            [ReferenceData] => stdClass Object
                (
                    [ReferenceItem] => stdClass Object
                        (
                            [Key] => QueueTimeoutURL
                            [Value] => https://internalsandbox.safaricom.co.ke/mpesa/b2cresults/v1/submit
                        )

                )

        )

)


-----------------------------------------------------------------------------------2017-12-01 15:30:43

stdClass Object
(
    [Result] => stdClass Object
        (
            [ResultType] => 0
            [ResultCode] => 2001
            [ResultDesc] => The initiator information is invalid.
            [OriginatorConversationID] => 10219-493007-1
            [ConversationID] => AG_20171201_000068088e180f3f1268
            [TransactionID] => LL10000000
            [ReferenceData] => stdClass Object
                (
                    [ReferenceItem] => stdClass Object
                        (
                            [Key] => QueueTimeoutURL
                            [Value] => https://internalsandbox.safaricom.co.ke/mpesa/b2cresults/v1/submit
                        )

                )

        )

)


-----------------------------------------------------------------------------------2017-12-01 15:31:58

stdClass Object
(
    [Result] => stdClass Object
        (
            [ResultType] => 0
            [ResultCode] => 2001
            [ResultDesc] => The initiator information is invalid.
            [OriginatorConversationID] => 7275-446618-1
            [ConversationID] => AG_20171201_0000515d62c808f54f04
            [TransactionID] => LL10000000
            [ReferenceData] => stdClass Object
                (
                    [ReferenceItem] => stdClass Object
                        (
                            [Key] => QueueTimeoutURL
                            [Value] => https://internalsandbox.safaricom.co.ke/mpesa/b2cresults/v1/submit
                        )

                )

        )

)


-----------------------------------------------------------------------------------2017-12-01 16:03:46

stdClass Object
(
    [Result] => stdClass Object
        (
            [ResultType] => 0
            [ResultCode] => 2001
            [ResultDesc] => The initiator information is invalid.
            [OriginatorConversationID] => 16944-479772-1
            [ConversationID] => AG_20171201_00007e231f774119b3e0
            [TransactionID] => LL10000000
            [ReferenceData] => stdClass Object
                (
                    [ReferenceItem] => stdClass Object
                        (
                            [Key] => QueueTimeoutURL
                            [Value] => https://internalsandbox.safaricom.co.ke/mpesa/b2cresults/v1/submit
                        )

                )

        )

)


-----------------------------------------------------------------------------------2017-12-01 17:17:20

stdClass Object
(
    [Result] => stdClass Object
        (
            [ResultType] => 0
            [ResultCode] => 2001
            [ResultDesc] => The initiator information is invalid.
            [OriginatorConversationID] => 7277-454824-1
            [ConversationID] => AG_20171201_000079884f10d7d2d036
            [TransactionID] => LL10000000
            [ReferenceData] => stdClass Object
                (
                    [ReferenceItem] => stdClass Object
                        (
                            [Key] => QueueTimeoutURL
                            [Value] => https://internalsandbox.safaricom.co.ke/mpesa/b2cresults/v1/submit
                        )

                )

        )

)


-----------------------------------------------------------------------------------2017-12-02 11:19:22

stdClass Object
(
    [Result] => stdClass Object
        (
            [ResultType] => 0
            [ResultCode] => 2001
            [ResultDesc] => The initiator information is invalid.
            [OriginatorConversationID] => 16954-551303-1
            [ConversationID] => AG_20171202_00007b213ecb8fa45f0a
            [TransactionID] => LL20000000
            [ReferenceData] => stdClass Object
                (
                    [ReferenceItem] => stdClass Object
                        (
                            [Key] => QueueTimeoutURL
                            [Value] => https://internalsandbox.safaricom.co.ke/mpesa/b2cresults/v1/submit
                        )

                )

        )

)


-----------------------------------------------------------------------------------2017-12-02 11:21:08

stdClass Object
(
    [Result] => stdClass Object
        (
            [ResultType] => 0
            [ResultCode] => 2001
            [ResultDesc] => The initiator information is invalid.
            [OriginatorConversationID] => 16945-551403-1
            [ConversationID] => AG_20171202_00007340fa69f8049135
            [TransactionID] => LL20000000
            [ReferenceData] => stdClass Object
                (
                    [ReferenceItem] => stdClass Object
                        (
                            [Key] => QueueTimeoutURL
                            [Value] => https://internalsandbox.safaricom.co.ke/mpesa/b2cresults/v1/submit
                        )

                )

        )

)


-----------------------------------------------------------------------------------2017-12-02 11:23:07

stdClass Object
(
    [Result] => stdClass Object
        (
            [ResultType] => 0
            [ResultCode] => 2001
            [ResultDesc] => The initiator information is invalid.
            [OriginatorConversationID] => 10218-570380-1
            [ConversationID] => AG_20171202_000076d1123d36617f83
            [TransactionID] => LL20000000
            [ReferenceData] => stdClass Object
                (
                    [ReferenceItem] => stdClass Object
                        (
                            [Key] => QueueTimeoutURL
                            [Value] => https://internalsandbox.safaricom.co.ke/mpesa/b2cresults/v1/submit
                        )

                )

        )

)


-----------------------------------------------------------------------------------2017-12-02 14:44:24

stdClass Object
(
    [Result] => stdClass Object
        (
            [ResultType] => 0
            [ResultCode] => 2001
            [ResultDesc] => The initiator information is invalid.
            [OriginatorConversationID] => 16949-566599-1
            [ConversationID] => AG_20171202_000058f5b8fa34b299ee
            [TransactionID] => LL20000000
            [ReferenceData] => stdClass Object
                (
                    [ReferenceItem] => stdClass Object
                        (
                            [Key] => QueueTimeoutURL
                            [Value] => https://internalsandbox.safaricom.co.ke/mpesa/b2cresults/v1/submit
                        )

                )

        )

)


-----------------------------------------------------------------------------------2017-12-02 15:00:27

stdClass Object
(
    [Result] => stdClass Object
        (
            [ResultType] => 0
            [ResultCode] => 2001
            [ResultDesc] => The initiator information is invalid.
            [OriginatorConversationID] => 10217-587160-1
            [ConversationID] => AG_20171202_000079959f437ce0f8d3
            [TransactionID] => LL20000000
            [ReferenceData] => stdClass Object
                (
                    [ReferenceItem] => stdClass Object
                        (
                            [Key] => QueueTimeoutURL
                            [Value] => https://internalsandbox.safaricom.co.ke/mpesa/b2cresults/v1/submit
                        )

                )

        )

)


-----------------------------------------------------------------------------------2017-12-04 13:52:15

stdClass Object
(
    [Result] => stdClass Object
        (
            [ResultType] => 0
            [ResultCode] => 2001
            [ResultDesc] => The initiator information is invalid.
            [OriginatorConversationID] => 7277-1169631-1
            [ConversationID] => AG_20171204_000053f9c0e15c5b2027
            [TransactionID] => LL40000000
            [ReferenceData] => stdClass Object
                (
                    [ReferenceItem] => stdClass Object
                        (
                            [Key] => QueueTimeoutURL
                            [Value] => https://internalsandbox.safaricom.co.ke/mpesa/b2cresults/v1/submit
                        )

                )

        )

)


-----------------------------------------------------------------------------------2017-12-04 13:57:16

stdClass Object
(
    [Result] => stdClass Object
        (
            [ResultType] => 0
            [ResultCode] => 2001
            [ResultDesc] => The initiator information is invalid.
            [OriginatorConversationID] => 7282-1170809-1
            [ConversationID] => AG_20171204_00006f9f97303d23803b
            [TransactionID] => LL40000000
            [ReferenceData] => stdClass Object
                (
                    [ReferenceItem] => stdClass Object
                        (
                            [Key] => QueueTimeoutURL
                            [Value] => https://internalsandbox.safaricom.co.ke/mpesa/b2cresults/v1/submit
                        )

                )

        )

)


-----------------------------------------------------------------------------------2017-12-04 13:57:31

stdClass Object
(
    [Result] => stdClass Object
        (
            [ResultType] => 0
            [ResultCode] => 2001
            [ResultDesc] => The initiator information is invalid.
            [OriginatorConversationID] => 7282-1170809-1
            [ConversationID] => AG_20171204_00006f9f97303d23803b
            [TransactionID] => LL40000000
            [ReferenceData] => stdClass Object
                (
                    [ReferenceItem] => stdClass Object
                        (
                            [Key] => QueueTimeoutURL
                            [Value] => https://internalsandbox.safaricom.co.ke/mpesa/b2cresults/v1/submit
                        )

                )

        )

)


-----------------------------------------------------------------------------------2017-12-04 14:27:30

stdClass Object
(
    [Result] => stdClass Object
        (
            [ResultType] => 0
            [ResultCode] => 2001
            [ResultDesc] => The initiator information is invalid.
            [OriginatorConversationID] => 10217-1243881-1
            [ConversationID] => AG_20171204_0000429e220a8ce0354d
            [TransactionID] => LL40000000
            [ResultParameters] => stdClass Object
                (
                    [ResultParameter] => stdClass Object
                        (
                            [Key] => BOCompletedTime
                            [Value] => 20171204115019
                        )

                )

            [ReferenceData] => stdClass Object
                (
                    [ReferenceItem] => stdClass Object
                        (
                            [Key] => QueueTimeoutURL
                            [Value] => https://internalsandbox.safaricom.co.ke/mpesa/abresults/v1/submit
                        )

                )

        )

)


-----------------------------------------------------------------------------------2017-12-04 14:27:39

stdClass Object
(
    [Result] => stdClass Object
        (
            [ResultType] => 0
            [ResultCode] => 2001
            [ResultDesc] => The initiator information is invalid.
            [OriginatorConversationID] => 10219-1243609-4
            [ConversationID] => AG_20171204_0000739d8dcffd04319d
            [TransactionID] => LL40000000
            [ResultParameters] => stdClass Object
                (
                    [ResultParameter] => stdClass Object
                        (
                            [Key] => BOCompletedTime
                            [Value] => 20171204115029
                        )

                )

            [ReferenceData] => stdClass Object
                (
                    [ReferenceItem] => stdClass Object
                        (
                            [Key] => QueueTimeoutURL
                            [Value] => https://internalsandbox.safaricom.co.ke/mpesa/abresults/v1/submit
                        )

                )

        )

)


-----------------------------------------------------------------------------------2017-12-04 14:28:00

stdClass Object
(
    [Result] => stdClass Object
        (
            [ResultType] => 0
            [ResultCode] => 2001
            [ResultDesc] => The initiator information is invalid.
            [OriginatorConversationID] => 10217-1243881-1
            [ConversationID] => AG_20171204_0000429e220a8ce0354d
            [TransactionID] => LL40000000
            [ResultParameters] => stdClass Object
                (
                    [ResultParameter] => stdClass Object
                        (
                            [Key] => BOCompletedTime
                            [Value] => 20171204115019
                        )

                )

            [ReferenceData] => stdClass Object
                (
                    [ReferenceItem] => stdClass Object
                        (
                            [Key] => QueueTimeoutURL
                            [Value] => https://internalsandbox.safaricom.co.ke/mpesa/abresults/v1/submit
                        )

                )

        )

)


-----------------------------------------------------------------------------------2017-12-04 14:28:15

stdClass Object
(
    [Result] => stdClass Object
        (
            [ResultType] => 0
            [ResultCode] => 2001
            [ResultDesc] => The initiator information is invalid.
            [OriginatorConversationID] => 10217-1243881-1
            [ConversationID] => AG_20171204_0000429e220a8ce0354d
            [TransactionID] => LL40000000
            [ResultParameters] => stdClass Object
                (
                    [ResultParameter] => stdClass Object
                        (
                            [Key] => BOCompletedTime
                            [Value] => 20171204115019
                        )

                )

            [ReferenceData] => stdClass Object
                (
                    [ReferenceItem] => stdClass Object
                        (
                            [Key] => QueueTimeoutURL
                            [Value] => https://internalsandbox.safaricom.co.ke/mpesa/abresults/v1/submit
                        )

                )

        )

)


-----------------------------------------------------------------------------------2017-12-04 14:29:32

stdClass Object
(
    [Result] => stdClass Object
        (
            [ResultType] => 0
            [ResultCode] => 2001
            [ResultDesc] => The initiator information is invalid.
            [OriginatorConversationID] => 10218-1244361-1
            [ConversationID] => AG_20171204_0000722d972de32cae3d
            [TransactionID] => LL40000000
            [ResultParameters] => stdClass Object
                (
                    [ResultParameter] => stdClass Object
                        (
                            [Key] => BOCompletedTime
                            [Value] => 20171204115206
                        )

                )

            [ReferenceData] => stdClass Object
                (
                    [ReferenceItem] => stdClass Object
                        (
                            [Key] => QueueTimeoutURL
                            [Value] => https://internalsandbox.safaricom.co.ke/mpesa/abresults/v1/submit
                        )

                )

        )

)


-----------------------------------------------------------------------------------2017-12-04 14:30:01

stdClass Object
(
    [Result] => stdClass Object
        (
            [ResultType] => 0
            [ResultCode] => 2001
            [ResultDesc] => The initiator information is invalid.
            [OriginatorConversationID] => 10218-1244361-1
            [ConversationID] => AG_20171204_0000722d972de32cae3d
            [TransactionID] => LL40000000
            [ResultParameters] => stdClass Object
                (
                    [ResultParameter] => stdClass Object
                        (
                            [Key] => BOCompletedTime
                            [Value] => 20171204115206
                        )

                )

            [ReferenceData] => stdClass Object
                (
                    [ReferenceItem] => stdClass Object
                        (
                            [Key] => QueueTimeoutURL
                            [Value] => https://internalsandbox.safaricom.co.ke/mpesa/abresults/v1/submit
                        )

                )

        )

)


-----------------------------------------------------------------------------------2017-12-04 17:05:41

stdClass Object
(
    [Result] => stdClass Object
        (
            [ResultType] => 0
            [ResultCode] => 2001
            [ResultDesc] => The initiator information is invalid.
            [OriginatorConversationID] => 10217-1284071-1
            [ConversationID] => AG_20171204_00007e860b1b4f351b6e
            [TransactionID] => LL40000000
            [ReferenceData] => stdClass Object
                (
                    [ReferenceItem] => stdClass Object
                        (
                            [Key] => QueueTimeoutURL
                            [Value] => https://internalsandbox.safaricom.co.ke/mpesa/b2cresults/v1/submit
                        )

                )

        )

)


-----------------------------------------------------------------------------------2017-12-04 17:06:11

stdClass Object
(
    [Result] => stdClass Object
        (
            [ResultType] => 0
            [ResultCode] => 2001
            [ResultDesc] => The initiator information is invalid.
            [OriginatorConversationID] => 10217-1284071-1
            [ConversationID] => AG_20171204_00007e860b1b4f351b6e
            [TransactionID] => LL40000000
            [ReferenceData] => stdClass Object
                (
                    [ReferenceItem] => stdClass Object
                        (
                            [Key] => QueueTimeoutURL
                            [Value] => https://internalsandbox.safaricom.co.ke/mpesa/b2cresults/v1/submit
                        )

                )

        )

)


-----------------------------------------------------------------------------------2017-12-04 17:06:16

stdClass Object
(
    [Result] => stdClass Object
        (
            [ResultType] => 0
            [ResultCode] => 2001
            [ResultDesc] => The initiator information is invalid.
            [OriginatorConversationID] => 7273-1218231-1
            [ConversationID] => AG_20171204_000052ddcd2f19ef77fd
            [TransactionID] => LL40000000
            [ReferenceData] => stdClass Object
                (
                    [ReferenceItem] => stdClass Object
                        (
                            [Key] => QueueTimeoutURL
                            [Value] => https://internalsandbox.safaricom.co.ke/mpesa/b2cresults/v1/submit
                        )

                )

        )

)


-----------------------------------------------------------------------------------2017-12-04 17:06:24

stdClass Object
(
    [Result] => stdClass Object
        (
            [ResultType] => 0
            [ResultCode] => 2001
            [ResultDesc] => The initiator information is invalid.
            [OriginatorConversationID] => 16948-1274933-1
            [ConversationID] => AG_20171204_00004fbbf6e308a59ebe
            [TransactionID] => LL40000000
            [ReferenceData] => stdClass Object
                (
                    [ReferenceItem] => stdClass Object
                        (
                            [Key] => QueueTimeoutURL
                            [Value] => https://internalsandbox.safaricom.co.ke/mpesa/b2cresults/v1/submit
                        )

                )

        )

)


-----------------------------------------------------------------------------------2017-12-04 17:06:32

stdClass Object
(
    [Result] => stdClass Object
        (
            [ResultType] => 0
            [ResultCode] => 2001
            [ResultDesc] => The initiator information is invalid.
            [OriginatorConversationID] => 7273-1218231-1
            [ConversationID] => AG_20171204_000052ddcd2f19ef77fd
            [TransactionID] => LL40000000
            [ReferenceData] => stdClass Object
                (
                    [ReferenceItem] => stdClass Object
                        (
                            [Key] => QueueTimeoutURL
                            [Value] => https://internalsandbox.safaricom.co.ke/mpesa/b2cresults/v1/submit
                        )

                )

        )

)


-----------------------------------------------------------------------------------2017-12-04 17:06:38

stdClass Object
(
    [Result] => stdClass Object
        (
            [ResultType] => 0
            [ResultCode] => 2001
            [ResultDesc] => The initiator information is invalid.
            [OriginatorConversationID] => 7277-1218266-1
            [ConversationID] => AG_20171204_000054eb0f3c3ac7750f
            [TransactionID] => LL40000000
            [ReferenceData] => stdClass Object
                (
                    [ReferenceItem] => stdClass Object
                        (
                            [Key] => QueueTimeoutURL
                            [Value] => https://internalsandbox.safaricom.co.ke/mpesa/b2cresults/v1/submit
                        )

                )

        )

)


-----------------------------------------------------------------------------------2017-12-04 17:06:39

stdClass Object
(
    [Result] => stdClass Object
        (
            [ResultType] => 0
            [ResultCode] => 2001
            [ResultDesc] => The initiator information is invalid.
            [OriginatorConversationID] => 16948-1274933-1
            [ConversationID] => AG_20171204_00004fbbf6e308a59ebe
            [TransactionID] => LL40000000
            [ReferenceData] => stdClass Object
                (
                    [ReferenceItem] => stdClass Object
                        (
                            [Key] => QueueTimeoutURL
                            [Value] => https://internalsandbox.safaricom.co.ke/mpesa/b2cresults/v1/submit
                        )

                )

        )

)


-----------------------------------------------------------------------------------2017-12-04 17:06:46

stdClass Object
(
    [Result] => stdClass Object
        (
            [ResultType] => 0
            [ResultCode] => 2001
            [ResultDesc] => The initiator information is invalid.
            [OriginatorConversationID] => 7273-1218231-1
            [ConversationID] => AG_20171204_000052ddcd2f19ef77fd
            [TransactionID] => LL40000000
            [ReferenceData] => stdClass Object
                (
                    [ReferenceItem] => stdClass Object
                        (
                            [Key] => QueueTimeoutURL
                            [Value] => https://internalsandbox.safaricom.co.ke/mpesa/b2cresults/v1/submit
                        )

                )

        )

)


-----------------------------------------------------------------------------------2017-12-04 17:07:01

stdClass Object
(
    [Result] => stdClass Object
        (
            [ResultType] => 0
            [ResultCode] => 2001
            [ResultDesc] => The initiator information is invalid.
            [OriginatorConversationID] => 7273-1218231-1
            [ConversationID] => AG_20171204_000052ddcd2f19ef77fd
            [TransactionID] => LL40000000
            [ReferenceData] => stdClass Object
                (
                    [ReferenceItem] => stdClass Object
                        (
                            [Key] => QueueTimeoutURL
                            [Value] => https://internalsandbox.safaricom.co.ke/mpesa/b2cresults/v1/submit
                        )

                )

        )

)


-----------------------------------------------------------------------------------2017-12-04 17:07:02

stdClass Object
(
    [Result] => stdClass Object
        (
            [ResultType] => 0
            [ResultCode] => 2001
            [ResultDesc] => The initiator information is invalid.
            [OriginatorConversationID] => 16949-1275167-1
            [ConversationID] => AG_20171204_00004d975cc7225fd83e
            [TransactionID] => LL40000000
            [ReferenceData] => stdClass Object
                (
                    [ReferenceItem] => stdClass Object
                        (
                            [Key] => QueueTimeoutURL
                            [Value] => https://internalsandbox.safaricom.co.ke/mpesa/b2cresults/v1/submit
                        )

                )

        )

)


-----------------------------------------------------------------------------------2017-12-04 17:07:47

stdClass Object
(
    [Result] => stdClass Object
        (
            [ResultType] => 0
            [ResultCode] => 2001
            [ResultDesc] => The initiator information is invalid.
            [OriginatorConversationID] => 16949-1275167-1
            [ConversationID] => AG_20171204_00004d975cc7225fd83e
            [TransactionID] => LL40000000
            [ReferenceData] => stdClass Object
                (
                    [ReferenceItem] => stdClass Object
                        (
                            [Key] => QueueTimeoutURL
                            [Value] => https://internalsandbox.safaricom.co.ke/mpesa/b2cresults/v1/submit
                        )

                )

        )

)


-----------------------------------------------------------------------------------2017-12-04 17:08:07

stdClass Object
(
    [Result] => stdClass Object
        (
            [ResultType] => 0
            [ResultCode] => 2001
            [ResultDesc] => The initiator information is invalid.
            [OriginatorConversationID] => 7280-1218513-1
            [ConversationID] => AG_20171204_00004b18bfc91774d683
            [TransactionID] => LL40000000
            [ReferenceData] => stdClass Object
                (
                    [ReferenceItem] => stdClass Object
                        (
                            [Key] => QueueTimeoutURL
                            [Value] => https://internalsandbox.safaricom.co.ke/mpesa/b2cresults/v1/submit
                        )

                )

        )

)


-----------------------------------------------------------------------------------2017-12-04 21:00:04

stdClass Object
(
    [Result] => stdClass Object
        (
            [ResultType] => 0
            [ResultCode] => 2001
            [ResultDesc] => The initiator information is invalid.
            [OriginatorConversationID] => 7273-1281281-2
            [ConversationID] => AG_20171204_00004459c04eebccc49f
            [TransactionID] => LL421H3SOY
            [ReferenceData] => stdClass Object
                (
                    [ReferenceItem] => stdClass Object
                        (
                            [Key] => QueueTimeoutURL
                            [Value] => https://internalsandbox.safaricom.co.ke/mpesa/b2cresults/v1/submit
                        )

                )

        )

)


-----------------------------------------------------------------------------------2017-12-04 21:00:38

stdClass Object
(
    [Result] => stdClass Object
        (
            [ResultType] => 0
            [ResultCode] => 2001
            [ResultDesc] => The initiator information is invalid.
            [OriginatorConversationID] => 7273-1281281-3
            [ConversationID] => AG_20171204_000073c73f9b9d978ab6
            [TransactionID] => LL431H3SOZ
            [ReferenceData] => stdClass Object
                (
                    [ReferenceItem] => stdClass Object
                        (
                            [Key] => QueueTimeoutURL
                            [Value] => https://internalsandbox.safaricom.co.ke/mpesa/b2cresults/v1/submit
                        )

                )

        )

)


-----------------------------------------------------------------------------------2017-12-04 21:00:44

stdClass Object
(
    [Result] => stdClass Object
        (
            [ResultType] => 0
            [ResultCode] => 2001
            [ResultDesc] => The initiator information is invalid.
            [OriginatorConversationID] => 7273-1281281-1
            [ConversationID] => AG_20171204_00004ac3c7ba0ab36028
            [TransactionID] => LL411H3SOX
            [ReferenceData] => stdClass Object
                (
                    [ReferenceItem] => stdClass Object
                        (
                            [Key] => QueueTimeoutURL
                            [Value] => https://internalsandbox.safaricom.co.ke/mpesa/b2cresults/v1/submit
                        )

                )

        )

)


-----------------------------------------------------------------------------------2017-12-04 21:00:47

stdClass Object
(
    [Result] => stdClass Object
        (
            [ResultType] => 0
            [ResultCode] => 2001
            [ResultDesc] => The initiator information is invalid.
            [OriginatorConversationID] => 7273-1281281-2
            [ConversationID] => AG_20171204_00004459c04eebccc49f
            [TransactionID] => LL421H3SOY
            [ReferenceData] => stdClass Object
                (
                    [ReferenceItem] => stdClass Object
                        (
                            [Key] => QueueTimeoutURL
                            [Value] => https://internalsandbox.safaricom.co.ke/mpesa/b2cresults/v1/submit
                        )

                )

        )

)


-----------------------------------------------------------------------------------2017-12-04 21:01:10

stdClass Object
(
    [Result] => stdClass Object
        (
            [ResultType] => 0
            [ResultCode] => 2001
            [ResultDesc] => The initiator information is invalid.
            [OriginatorConversationID] => 7273-1281281-5
            [ConversationID] => AG_20171204_000055a6922fe34a6e8d
            [TransactionID] => LL451H3SP1
            [ReferenceData] => stdClass Object
                (
                    [ReferenceItem] => stdClass Object
                        (
                            [Key] => QueueTimeoutURL
                            [Value] => https://internalsandbox.safaricom.co.ke/mpesa/b2cresults/v1/submit
                        )

                )

        )

)


-----------------------------------------------------------------------------------2017-12-05 10:07:43

stdClass Object
(
    [Result] => stdClass Object
        (
            [ResultType] => 0
            [ResultCode] => 2001
            [ResultDesc] => The initiator information is invalid.
            [OriginatorConversationID] => 7280-1471766-1
            [ConversationID] => AG_20171205_0000776b1f903b013892
            [TransactionID] => LL50000000
            [ReferenceData] => stdClass Object
                (
                    [ReferenceItem] => stdClass Object
                        (
                            [Key] => QueueTimeoutURL
                            [Value] => https://internalsandbox.safaricom.co.ke/mpesa/b2cresults/v1/submit
                        )

                )

        )

)


-----------------------------------------------------------------------------------2017-12-05 10:07:52

stdClass Object
(
    [Result] => stdClass Object
        (
            [ResultType] => 0
            [ResultCode] => 2001
            [ResultDesc] => The initiator information is invalid.
            [OriginatorConversationID] => 16948-1535830-1
            [ConversationID] => AG_20171205_000045caefea10d4175a
            [TransactionID] => LL50000000
            [ReferenceData] => stdClass Object
                (
                    [ReferenceItem] => stdClass Object
                        (
                            [Key] => QueueTimeoutURL
                            [Value] => https://internalsandbox.safaricom.co.ke/mpesa/b2cresults/v1/submit
                        )

                )

        )

)


-----------------------------------------------------------------------------------2017-12-05 10:33:58

stdClass Object
(
    [Result] => stdClass Object
        (
            [ResultType] => 0
            [ResultCode] => 2001
            [ResultDesc] => The initiator information is invalid.
            [OriginatorConversationID] => 16947-1542012-1
            [ConversationID] => AG_20171205_0000715c0084c495d0bd
            [TransactionID] => LL50000000
            [ResultParameters] => stdClass Object
                (
                    [ResultParameter] => stdClass Object
                        (
                            [Key] => BOCompletedTime
                            [Value] => 20171205075557
                        )

                )

            [ReferenceData] => stdClass Object
                (
                    [ReferenceItem] => stdClass Object
                        (
                            [Key] => QueueTimeoutURL
                            [Value] => https://internalsandbox.safaricom.co.ke/mpesa/abresults/v1/submit
                        )

                )

        )

)


-----------------------------------------------------------------------------------2017-12-05 11:08:31



-----------------------------------------------------------------------------------2017-12-05 15:39:55

stdClass Object
(
    [Result] => stdClass Object
        (
            [ResultType] => 0
            [ResultCode] => 2001
            [ResultDesc] => The initiator information is invalid.
            [OriginatorConversationID] => 7275-1541908-1
            [ConversationID] => AG_20171205_0000633580980a2ce195
            [TransactionID] => LL50000000
            [ReferenceData] => stdClass Object
                (
                    [ReferenceItem] => stdClass Object
                        (
                            [Key] => QueueTimeoutURL
                            [Value] => https://internalsandbox.safaricom.co.ke/mpesa/b2cresults/v1/submit
                        )

                )

        )

)


-----------------------------------------------------------------------------------2017-12-05 15:44:50

stdClass Object
(
    [Result] => stdClass Object
        (
            [ResultType] => 0
            [ResultCode] => 2001
            [ResultDesc] => The initiator information is invalid.
            [OriginatorConversationID] => 16947-1608621-1
            [ConversationID] => AG_20171205_00006c9c32e763fd6613
            [TransactionID] => LL50000000
            [ReferenceData] => stdClass Object
                (
                    [ReferenceItem] => stdClass Object
                        (
                            [Key] => QueueTimeoutURL
                            [Value] => https://internalsandbox.safaricom.co.ke/mpesa/b2cresults/v1/submit
                        )

                )

        )

)


-----------------------------------------------------------------------------------2017-12-05 15:46:47

stdClass Object
(
    [Result] => stdClass Object
        (
            [ResultType] => 0
            [ResultCode] => 2001
            [ResultDesc] => The initiator information is invalid.
            [OriginatorConversationID] => 16945-1608781-1
            [ConversationID] => AG_20171205_000076115342dae38bc2
            [TransactionID] => LL50000000
            [ReferenceData] => stdClass Object
                (
                    [ReferenceItem] => stdClass Object
                        (
                            [Key] => QueueTimeoutURL
                            [Value] => https://internalsandbox.safaricom.co.ke/mpesa/b2cresults/v1/submit
                        )

                )

        )

)


-----------------------------------------------------------------------------------2017-12-05 15:46:56

stdClass Object
(
    [Result] => stdClass Object
        (
            [ResultType] => 0
            [ResultCode] => 2001
            [ResultDesc] => The initiator information is invalid.
            [OriginatorConversationID] => 7280-1542514-1
            [ConversationID] => AG_20171205_000041b4552bf1902822
            [TransactionID] => LL50000000
            [ReferenceData] => stdClass Object
                (
                    [ReferenceItem] => stdClass Object
                        (
                            [Key] => QueueTimeoutURL
                            [Value] => https://internalsandbox.safaricom.co.ke/mpesa/b2cresults/v1/submit
                        )

                )

        )

)


-----------------------------------------------------------------------------------2017-12-05 15:50:13

stdClass Object
(
    [Result] => stdClass Object
        (
            [ResultType] => 0
            [ResultCode] => 2001
            [ResultDesc] => The initiator information is invalid.
            [OriginatorConversationID] => 16945-1609059-2
            [ConversationID] => AG_20171205_0000463ee20dbefbd93f
            [TransactionID] => LL50000000
            [ReferenceData] => stdClass Object
                (
                    [ReferenceItem] => stdClass Object
                        (
                            [Key] => QueueTimeoutURL
                            [Value] => https://internalsandbox.safaricom.co.ke/mpesa/b2cresults/v1/submit
                        )

                )

        )

)


-----------------------------------------------------------------------------------2017-12-05 16:03:30

stdClass Object
(
    [Result] => stdClass Object
        (
            [ResultType] => 0
            [ResultCode] => 2001
            [ResultDesc] => The initiator information is invalid.
            [OriginatorConversationID] => 7273-1543886-1
            [ConversationID] => AG_20171205_0000445659f23febab27
            [TransactionID] => LL50000000
            [ReferenceData] => stdClass Object
                (
                    [ReferenceItem] => stdClass Object
                        (
                            [Key] => QueueTimeoutURL
                            [Value] => https://internalsandbox.safaricom.co.ke/mpesa/b2cresults/v1/submit
                        )

                )

        )

)


-----------------------------------------------------------------------------------2017-12-05 16:07:04

stdClass Object
(
    [Result] => stdClass Object
        (
            [ResultType] => 0
            [ResultCode] => 2001
            [ResultDesc] => The initiator information is invalid.
            [OriginatorConversationID] => 10218-1614594-1
            [ConversationID] => AG_20171205_00005f15ba61d89d2690
            [TransactionID] => LL50000000
            [ReferenceData] => stdClass Object
                (
                    [ReferenceItem] => stdClass Object
                        (
                            [Key] => QueueTimeoutURL
                            [Value] => https://internalsandbox.safaricom.co.ke/mpesa/b2cresults/v1/submit
                        )

                )

        )

)


-----------------------------------------------------------------------------------2017-12-05 16:16:21

stdClass Object
(
    [Result] => stdClass Object
        (
            [ResultType] => 0
            [ResultCode] => 2001
            [ResultDesc] => The initiator information is invalid.
            [OriginatorConversationID] => 10217-1615472-1
            [ConversationID] => AG_20171205_00007cac8f44f8f35902
            [TransactionID] => LL50000000
            [ReferenceData] => stdClass Object
                (
                    [ReferenceItem] => stdClass Object
                        (
                            [Key] => QueueTimeoutURL
                            [Value] => https://internalsandbox.safaricom.co.ke/mpesa/b2cresults/v1/submit
                        )

                )

        )

)


-----------------------------------------------------------------------------------2017-12-05 16:25:00

stdClass Object
(
    [Result] => stdClass Object
        (
            [ResultType] => 0
            [ResultCode] => 2001
            [ResultDesc] => The initiator information is invalid.
            [OriginatorConversationID] => 16949-1612242-1
            [ConversationID] => AG_20171205_000053ce3098dbfdcd98
            [TransactionID] => LL50000000
            [ReferenceData] => stdClass Object
                (
                    [ReferenceItem] => stdClass Object
                        (
                            [Key] => QueueTimeoutURL
                            [Value] => https://internalsandbox.safaricom.co.ke/mpesa/b2cresults/v1/submit
                        )

                )

        )

)


-----------------------------------------------------------------------------------2017-12-05 17:08:19

stdClass Object
(
    [Result] => stdClass Object
        (
            [ResultType] => 0
            [ResultCode] => 2001
            [ResultDesc] => The initiator information is invalid.
            [OriginatorConversationID] => 16949-1615918-1
            [ConversationID] => AG_20171205_00004cba3cffab5089bd
            [TransactionID] => LL50000000
            [ReferenceData] => stdClass Object
                (
                    [ReferenceItem] => stdClass Object
                        (
                            [Key] => QueueTimeoutURL
                            [Value] => https://internalsandbox.safaricom.co.ke/mpesa/b2cresults/v1/submit
                        )

                )

        )

)


-----------------------------------------------------------------------------------2017-12-05 17:09:44

stdClass Object
(
    [Result] => stdClass Object
        (
            [ResultType] => 0
            [ResultCode] => 2001
            [ResultDesc] => The initiator information is invalid.
            [OriginatorConversationID] => 7277-1549451-1
            [ConversationID] => AG_20171205_000072a9664a74c764b0
            [TransactionID] => LL50000000
            [ReferenceData] => stdClass Object
                (
                    [ReferenceItem] => stdClass Object
                        (
                            [Key] => QueueTimeoutURL
                            [Value] => https://internalsandbox.safaricom.co.ke/mpesa/b2cresults/v1/submit
                        )

                )

        )

)


-----------------------------------------------------------------------------------2017-12-05 17:09:53

stdClass Object
(
    [Result] => stdClass Object
        (
            [ResultType] => 0
            [ResultCode] => 2001
            [ResultDesc] => The initiator information is invalid.
            [OriginatorConversationID] => 16943-1616052-1
            [ConversationID] => AG_20171205_0000722efa3c9b2ad106
            [TransactionID] => LL50000000
            [ReferenceData] => stdClass Object
                (
                    [ReferenceItem] => stdClass Object
                        (
                            [Key] => QueueTimeoutURL
                            [Value] => https://internalsandbox.safaricom.co.ke/mpesa/b2cresults/v1/submit
                        )

                )

        )

)


-----------------------------------------------------------------------------------2017-12-05 17:13:30

stdClass Object
(
    [Result] => stdClass Object
        (
            [ResultType] => 0
            [ResultCode] => 2001
            [ResultDesc] => The initiator information is invalid.
            [OriginatorConversationID] => 7282-1549745-1
            [ConversationID] => AG_20171205_00004330eb77a6ca1b03
            [TransactionID] => LL50000000
            [ReferenceData] => stdClass Object
                (
                    [ReferenceItem] => stdClass Object
                        (
                            [Key] => QueueTimeoutURL
                            [Value] => https://internalsandbox.safaricom.co.ke/mpesa/b2cresults/v1/submit
                        )

                )

        )

)


-----------------------------------------------------------------------------------2017-12-05 17:14:55

stdClass Object
(
    [Result] => stdClass Object
        (
            [ResultType] => 0
            [ResultCode] => 2001
            [ResultDesc] => The initiator information is invalid.
            [OriginatorConversationID] => 7281-1549874-1
            [ConversationID] => AG_20171205_00005e2f7b87e387bdcf
            [TransactionID] => LL50000000
            [ReferenceData] => stdClass Object
                (
                    [ReferenceItem] => stdClass Object
                        (
                            [Key] => QueueTimeoutURL
                            [Value] => https://internalsandbox.safaricom.co.ke/mpesa/b2cresults/v1/submit
                        )

                )

        )

)


-----------------------------------------------------------------------------------2017-12-05 17:42:37



-----------------------------------------------------------------------------------2017-12-05 17:42:52

stdClass Object
(
    [Result] => stdClass Object
        (
            [ResultType] => 0
            [ResultCode] => 2001
            [ResultDesc] => The initiator information is invalid.
            [OriginatorConversationID] => 16947-1619117-2
            [ConversationID] => AG_20171205_00007ad35e825fa0f8a7
            [TransactionID] => LL50000000
            [ResultParameters] => stdClass Object
                (
                    [ResultParameter] => stdClass Object
                        (
                            [Key] => BOCompletedTime
                            [Value] => 20171205150538
                        )

                )

            [ReferenceData] => stdClass Object
                (
                    [ReferenceItem] => stdClass Object
                        (
                            [Key] => QueueTimeoutURL
                            [Value] => https://internalsandbox.safaricom.co.ke/mpesa/abresults/v1/submit
                        )

                )

        )

)


-----------------------------------------------------------------------------------2017-12-05 17:42:56



-----------------------------------------------------------------------------------2017-12-05 17:43:01



-----------------------------------------------------------------------------------2017-12-05 18:00:45

stdClass Object
(
    [Result] => stdClass Object
        (
            [ResultType] => 0
            [ResultCode] => 2001
            [ResultDesc] => The initiator information is invalid.
            [OriginatorConversationID] => 16941-1620800-1
            [ConversationID] => AG_20171205_0000435df9788575b102
            [TransactionID] => LL581H3T08
            [ReferenceData] => stdClass Object
                (
                    [ReferenceItem] => stdClass Object
                        (
                            [Key] => QueueTimeoutURL
                            [Value] => https://internalsandbox.safaricom.co.ke/mpesa/b2cresults/v1/submit
                        )

                )

        )

)


-----------------------------------------------------------------------------------2017-12-06 11:54:50

stdClass Object
(
    [Result] => stdClass Object
        (
            [ResultType] => 0
            [ResultCode] => 17
            [ResultDesc] => System internal error.
            [OriginatorConversationID] => 7283-1627563-1
            [ConversationID] => AG_20171206_00005bea3d83d44e16d0
            [TransactionID] => LL611H3TC9
            [ReferenceData] => stdClass Object
                (
                    [ReferenceItem] => stdClass Object
                        (
                            [Key] => QueueTimeoutURL
                            [Value] => https://internalsandbox.safaricom.co.ke/mpesa/b2cresults/v1/submit
                        )

                )

        )

)


-----------------------------------------------------------------------------------2017-12-06 11:56:49

stdClass Object
(
    [Result] => stdClass Object
        (
            [ResultType] => 0
            [ResultCode] => 2001
            [ResultDesc] => The initiator information is invalid.
            [OriginatorConversationID] => 16942-1699132-1
            [ConversationID] => AG_20171206_000043861d242f37a9aa
            [TransactionID] => LL641H3TCC
            [ReferenceData] => stdClass Object
                (
                    [ReferenceItem] => stdClass Object
                        (
                            [Key] => QueueTimeoutURL
                            [Value] => https://internalsandbox.safaricom.co.ke/mpesa/b2cresults/v1/submit
                        )

                )

        )

)


-----------------------------------------------------------------------------------2017-12-06 16:01:09



-----------------------------------------------------------------------------------2017-12-06 18:02:30

stdClass Object
(
    [Result] => stdClass Object
        (
            [ResultType] => 0
            [ResultCode] => 2001
            [ResultDesc] => The initiator information is invalid.
            [OriginatorConversationID] => 16946-1721735-1
            [ConversationID] => AG_20171206_0000670d6ed8ce6a83d9
            [TransactionID] => LL60000000
            [ReferenceData] => stdClass Object
                (
                    [ReferenceItem] => stdClass Object
                        (
                            [Key] => QueueTimeoutURL
                            [Value] => https://internalsandbox.safaricom.co.ke/mpesa/b2cresults/v1/submit
                        )

                )

        )

)


-----------------------------------------------------------------------------------2017-12-06 18:11:07

stdClass Object
(
    [Result] => stdClass Object
        (
            [ResultType] => 0
            [ResultCode] => 2001
            [ResultDesc] => The initiator information is invalid.
            [OriginatorConversationID] => 16954-1722601-1
            [ConversationID] => AG_20171206_00007ba57d629f31608d
            [TransactionID] => LL60000000
            [ReferenceData] => stdClass Object
                (
                    [ReferenceItem] => stdClass Object
                        (
                            [Key] => QueueTimeoutURL
                            [Value] => https://internalsandbox.safaricom.co.ke/mpesa/b2cresults/v1/submit
                        )

                )

        )

)


-----------------------------------------------------------------------------------2017-12-06 18:20:05

stdClass Object
(
    [Result] => stdClass Object
        (
            [ResultType] => 0
            [ResultCode] => 2001
            [ResultDesc] => The initiator information is invalid.
            [OriginatorConversationID] => 7281-1661000-1
            [ConversationID] => AG_20171206_0000556e7723ee6a0fcb
            [TransactionID] => LL661H3TMY
            [ReferenceData] => stdClass Object
                (
                    [ReferenceItem] => stdClass Object
                        (
                            [Key] => QueueTimeoutURL
                            [Value] => https://internalsandbox.safaricom.co.ke/mpesa/b2cresults/v1/submit
                        )

                )

        )

)


-----------------------------------------------------------------------------------2017-12-06 18:25:38

stdClass Object
(
    [Result] => stdClass Object
        (
            [ResultType] => 0
            [ResultCode] => 0
            [ResultDesc] => The service request is processed successfully.
            [OriginatorConversationID] => 7282-1661602-1
            [ConversationID] => AG_20171206_00006e35cb6c3c7f03f4
            [TransactionID] => LL601H3TN2
            [ResultParameters] => stdClass Object
                (
                    [ResultParameter] => Array
                        (
                            [0] => stdClass Object
                                (
                                    [Key] => TransactionAmount
                                    [Value] => 10
                                )

                            [1] => stdClass Object
                                (
                                    [Key] => TransactionReceipt
                                    [Value] => LL601H3TN2
                                )

                            [2] => stdClass Object
                                (
                                    [Key] => ReceiverPartyPublicName
                                    [Value] => 254708374149 - John Doe
                                )

                            [3] => stdClass Object
                                (
                                    [Key] => TransactionCompletedDateTime
                                    [Value] => 06.12.2017 15:48:16
                                )

                            [4] => stdClass Object
                                (
                                    [Key] => B2CUtilityAccountAvailableFunds
                                    [Value] => 49665
                                )

                            [5] => stdClass Object
                                (
                                    [Key] => B2CWorkingAccountAvailableFunds
                                    [Value] => 600000
                                )

                            [6] => stdClass Object
                                (
                                    [Key] => B2CRecipientIsRegisteredCustomer
                                    [Value] => Y
                                )

                            [7] => stdClass Object
                                (
                                    [Key] => B2CChargesPaidAccountAvailableFunds
                                    [Value] => 0
                                )

                        )

                )

            [ReferenceData] => stdClass Object
                (
                    [ReferenceItem] => stdClass Object
                        (
                            [Key] => QueueTimeoutURL
                            [Value] => https://internalsandbox.safaricom.co.ke/mpesa/b2cresults/v1/submit
                        )

                )

        )

)


-----------------------------------------------------------------------------------2017-12-06 18:47:22

stdClass Object
(
    [Result] => stdClass Object
        (
            [ResultType] => 0
            [ResultCode] => 2001
            [ResultDesc] => The initiator information is invalid.
            [OriginatorConversationID] => 16950-1726545-1
            [ConversationID] => AG_20171206_00007838d7a547c8ec82
            [TransactionID] => LL651H3TNH
            [ReferenceData] => stdClass Object
                (
                    [ReferenceItem] => stdClass Object
                        (
                            [Key] => QueueTimeoutURL
                            [Value] => https://internalsandbox.safaricom.co.ke/mpesa/b2cresults/v1/submit
                        )

                )

        )

)


-----------------------------------------------------------------------------------2017-12-06 18:56:43

stdClass Object
(
    [Result] => stdClass Object
        (
            [ResultType] => 0
            [ResultCode] => 2001
            [ResultDesc] => The initiator information is invalid.
            [OriginatorConversationID] => 7280-1664450-1
            [ConversationID] => AG_20171206_00007cb86055d5b51538
            [TransactionID] => LL681H3TNK
            [ReferenceData] => stdClass Object
                (
                    [ReferenceItem] => stdClass Object
                        (
                            [Key] => QueueTimeoutURL
                            [Value] => https://internalsandbox.safaricom.co.ke/mpesa/b2cresults/v1/submit
                        )

                )

        )

)


-----------------------------------------------------------------------------------2017-12-06 18:57:12

stdClass Object
(
    [Result] => stdClass Object
        (
            [ResultType] => 0
            [ResultCode] => 0
            [ResultDesc] => The service request is processed successfully.
            [OriginatorConversationID] => 10219-1740978-1
            [ConversationID] => AG_20171206_000057c13113d08a5f64
            [TransactionID] => LL691H3TNL
            [ResultParameters] => stdClass Object
                (
                    [ResultParameter] => Array
                        (
                            [0] => stdClass Object
                                (
                                    [Key] => ReceiverPartyPublicName
                                    [Value] => 254708374149 - John Doe
                                )

                            [1] => stdClass Object
                                (
                                    [Key] => TransactionCompletedDateTime
                                    [Value] => 06.12.2017 16:19:51
                                )

                            [2] => stdClass Object
                                (
                                    [Key] => B2CUtilityAccountAvailableFunds
                                    [Value] => 49230
                                )

                            [3] => stdClass Object
                                (
                                    [Key] => B2CWorkingAccountAvailableFunds
                                    [Value] => 600000
                                )

                            [4] => stdClass Object
                                (
                                    [Key] => B2CRecipientIsRegisteredCustomer
                                    [Value] => Y
                                )

                            [5] => stdClass Object
                                (
                                    [Key] => B2CChargesPaidAccountAvailableFunds
                                    [Value] => 0
                                )

                            [6] => stdClass Object
                                (
                                    [Key] => TransactionAmount
                                    [Value] => 10
                                )

                            [7] => stdClass Object
                                (
                                    [Key] => TransactionReceipt
                                    [Value] => LL691H3TNL
                                )

                        )

                )

            [ReferenceData] => stdClass Object
                (
                    [ReferenceItem] => stdClass Object
                        (
                            [Key] => QueueTimeoutURL
                            [Value] => https://internalsandbox.safaricom.co.ke/mpesa/b2cresults/v1/submit
                        )

                )

        )

)


-----------------------------------------------------------------------------------2017-12-06 18:58:37

stdClass Object
(
    [Result] => stdClass Object
        (
            [ResultType] => 0
            [ResultCode] => 0
            [ResultDesc] => The service request is processed successfully.
            [OriginatorConversationID] => 10218-1741099-1
            [ConversationID] => AG_20171206_000067938a5953eab789
            [TransactionID] => LL611H3TNN
            [ResultParameters] => stdClass Object
                (
                    [ResultParameter] => Array
                        (
                            [0] => stdClass Object
                                (
                                    [Key] => ReceiverPartyPublicName
                                    [Value] => 254708374149 - John Doe
                                )

                            [1] => stdClass Object
                                (
                                    [Key] => TransactionCompletedDateTime
                                    [Value] => 06.12.2017 16:21:16
                                )

                            [2] => stdClass Object
                                (
                                    [Key] => B2CUtilityAccountAvailableFunds
                                    [Value] => 39197
                                )

                            [3] => stdClass Object
                                (
                                    [Key] => B2CWorkingAccountAvailableFunds
                                    [Value] => 600000
                                )

                            [4] => stdClass Object
                                (
                                    [Key] => B2CRecipientIsRegisteredCustomer
                                    [Value] => Y
                                )

                            [5] => stdClass Object
                                (
                                    [Key] => B2CChargesPaidAccountAvailableFunds
                                    [Value] => 0
                                )

                            [6] => stdClass Object
                                (
                                    [Key] => TransactionAmount
                                    [Value] => 10000
                                )

                            [7] => stdClass Object
                                (
                                    [Key] => TransactionReceipt
                                    [Value] => LL611H3TNN
                                )

                        )

                )

            [ReferenceData] => stdClass Object
                (
                    [ReferenceItem] => stdClass Object
                        (
                            [Key] => QueueTimeoutURL
                            [Value] => https://internalsandbox.safaricom.co.ke/mpesa/b2cresults/v1/submit
                        )

                )

        )

)


-----------------------------------------------------------------------------------2017-12-06 19:00:19

stdClass Object
(
    [Result] => stdClass Object
        (
            [ResultType] => 0
            [ResultCode] => 1
            [ResultDesc] => The balance is insufficient for the transaction.
            [OriginatorConversationID] => 7283-1664765-1
            [ConversationID] => AG_20171206_00007d00c13559c645a2
            [TransactionID] => LL651H3TNR
            [ReferenceData] => stdClass Object
                (
                    [ReferenceItem] => stdClass Object
                        (
                            [Key] => QueueTimeoutURL
                            [Value] => https://internalsandbox.safaricom.co.ke/mpesa/b2cresults/v1/submit
                        )

                )

        )

)


-----------------------------------------------------------------------------------2017-12-07 12:15:46

{"Result":{"ResultType":0,"ResultCode":2001,"ResultDesc":"The initiator information is invalid.","OriginatorConversationID":"10220-1813352-1","ConversationID":"AG_20171207_000040925368c685483c","TransactionID":"LL70000000","ReferenceData":{"ReferenceItem":{"Key":"QueueTimeoutURL","Value":"https:\/\/internalsandbox.safaricom.co.ke\/mpesa\/b2cresults\/v1\/submit"}}}}

-----------------------------------------------------------------------------------2017-12-07 14:08:48

{"Result":{"ResultType":0,"ResultCode":0,"ResultDesc":"The service request is processed successfully.","OriginatorConversationID":"10218-1822137-1","ConversationID":"AG_20171207_0000667933fba41f571f","TransactionID":"LL771H3TW5","ResultParameters":{"ResultParameter":[{"Key":"TransactionAmount","Value":10},{"Key":"TransactionReceipt","Value":"LL771H3TW5"},{"Key":"ReceiverPartyPublicName","Value":"254708374149 - John Doe"},{"Key":"TransactionCompletedDateTime","Value":"07.12.2017 11:31:21"},{"Key":"B2CUtilityAccountAvailableFunds","Value":2754.00},{"Key":"B2CWorkingAccountAvailableFunds","Value":600000.00},{"Key":"B2CRecipientIsRegisteredCustomer","Value":"Y"},{"Key":"B2CChargesPaidAccountAvailableFunds","Value":0.00}]},"ReferenceData":{"ReferenceItem":{"Key":"QueueTimeoutURL","Value":"https:\/\/internalsandbox.safaricom.co.ke\/mpesa\/b2cresults\/v1\/submit"}}}}

-----------------------------------------------------------------------------------2017-12-07 14:09:51

{"Result":{"ResultType":0,"ResultCode":0,"ResultDesc":"The service request is processed successfully.","OriginatorConversationID":"7283-1738785-1","ConversationID":"AG_20171207_0000457c23eafede99d3","TransactionID":"LL781H3TW6","ResultParameters":{"ResultParameter":[{"Key":"TransactionAmount","Value":10},{"Key":"TransactionReceipt","Value":"LL781H3TW6"},{"Key":"ReceiverPartyPublicName","Value":"254708374149 - John Doe"},{"Key":"TransactionCompletedDateTime","Value":"07.12.2017 11:32:24"},{"Key":"B2CUtilityAccountAvailableFunds","Value":2711.00},{"Key":"B2CWorkingAccountAvailableFunds","Value":600000.00},{"Key":"B2CRecipientIsRegisteredCustomer","Value":"Y"},{"Key":"B2CChargesPaidAccountAvailableFunds","Value":0.00}]},"ReferenceData":{"ReferenceItem":{"Key":"QueueTimeoutURL","Value":"https:\/\/internalsandbox.safaricom.co.ke\/mpesa\/b2cresults\/v1\/submit"}}}}

-----------------------------------------------------------------------------------2017-12-07 14:11:50

{"Result":{"ResultType":0,"ResultCode":2001,"ResultDesc":"The initiator information is invalid.","OriginatorConversationID":"16945-1805645-1","ConversationID":"AG_20171207_0000555136f3d6b24e0d","TransactionID":"LL791H3TW7","ReferenceData":{"ReferenceItem":{"Key":"QueueTimeoutURL","Value":"https:\/\/internalsandbox.safaricom.co.ke\/mpesa\/b2cresults\/v1\/submit"}}}}

-----------------------------------------------------------------------------------2017-12-07 14:45:10

{"Result":{"ResultType":0,"ResultCode":2001,"ResultDesc":"The initiator information is invalid.","OriginatorConversationID":"10217-1825104-1","ConversationID":"AG_20171207_00005d16dfd02f076ab8","TransactionID":"LL761H3TWY","ReferenceData":{"ReferenceItem":{"Key":"QueueTimeoutURL","Value":"https:\/\/internalsandbox.safaricom.co.ke\/mpesa\/b2cresults\/v1\/submit"}}}}

-----------------------------------------------------------------------------------2017-12-07 14:45:40

{"Result":{"ResultType":0,"ResultCode":0,"ResultDesc":"The service request is processed successfully.","OriginatorConversationID":"16945-1808326-1","ConversationID":"AG_20171207_0000669d7deeb3fdef95","TransactionID":"LL771H3TWZ","ResultParameters":{"ResultParameter":[{"Key":"ReceiverPartyPublicName","Value":"254708374149 - John Doe"},{"Key":"TransactionCompletedDateTime","Value":"07.12.2017 12:08:13"},{"Key":"B2CUtilityAccountAvailableFunds","Value":2668.00},{"Key":"B2CWorkingAccountAvailableFunds","Value":600000.00},{"Key":"B2CRecipientIsRegisteredCustomer","Value":"Y"},{"Key":"B2CChargesPaidAccountAvailableFunds","Value":0.00},{"Key":"TransactionAmount","Value":10},{"Key":"TransactionReceipt","Value":"LL771H3TWZ"}]},"ReferenceData":{"ReferenceItem":{"Key":"QueueTimeoutURL","Value":"https:\/\/internalsandbox.safaricom.co.ke\/mpesa\/b2cresults\/v1\/submit"}}}}

-----------------------------------------------------------------------------------2017-12-07 14:48:09

{"Result":{"ResultType":0,"ResultCode":1,"ResultDesc":"The balance is insufficient for the transaction.","OriginatorConversationID":"7273-1741658-1","ConversationID":"AG_20171207_000077d1e03d416bcdc9","TransactionID":"LL791H3TX1","ReferenceData":{"ReferenceItem":{"Key":"QueueTimeoutURL","Value":"https:\/\/internalsandbox.safaricom.co.ke\/mpesa\/b2cresults\/v1\/submit"}}}}

-----------------------------------------------------------------------------------2017-12-07 14:50:53

{"Result":{"ResultType":0,"ResultCode":2001,"ResultDesc":"The initiator information is invalid.","OriginatorConversationID":"16949-1808736-1","ConversationID":"AG_20171207_0000678063763ad3ee42","TransactionID":"LL701H3TX2","ReferenceData":{"ReferenceItem":{"Key":"QueueTimeoutURL","Value":"https:\/\/internalsandbox.safaricom.co.ke\/mpesa\/b2cresults\/v1\/submit"}}}}

-----------------------------------------------------------------------------------2017-12-07 15:03:27

{"Result":{"ResultType":0,"ResultCode":2001,"ResultDesc":"The initiator information is invalid.","OriginatorConversationID":"7283-1742823-1","ConversationID":"AG_20171207_000059faf09a2ed443fa","TransactionID":"LL70000000","ReferenceData":{"ReferenceItem":{"Key":"QueueTimeoutURL","Value":"https:\/\/internalsandbox.safaricom.co.ke\/mpesa\/b2cresults\/v1\/submit"}}}}

-----------------------------------------------------------------------------------2017-12-07 15:05:07

{"Result":{"ResultType":0,"ResultCode":2001,"ResultDesc":"The initiator information is invalid.","OriginatorConversationID":"10220-1826713-1","ConversationID":"AG_20171207_00006d46b840a6681007","TransactionID":"LL731H3TX5","ReferenceData":{"ReferenceItem":{"Key":"QueueTimeoutURL","Value":"https:\/\/internalsandbox.safaricom.co.ke\/mpesa\/b2cresults\/v1\/submit"}}}}

-----------------------------------------------------------------------------------2017-12-07 15:05:49

{"Result":{"ResultType":0,"ResultCode":2001,"ResultDesc":"The initiator information is invalid.","OriginatorConversationID":"10219-1826743-1","ConversationID":"AG_20171207_000079c161916d0c3b56","TransactionID":"LL741H3TX6","ReferenceData":{"ReferenceItem":{"Key":"QueueTimeoutURL","Value":"https:\/\/internalsandbox.safaricom.co.ke\/mpesa\/b2cresults\/v1\/submit"}}}}

-----------------------------------------------------------------------------------2017-12-07 15:05:53

{"Result":{"ResultType":0,"ResultCode":2001,"ResultDesc":"The initiator information is invalid.","OriginatorConversationID":"10219-1826767-1","ConversationID":"AG_20171207_00006386b780114357c7","TransactionID":"LL751H3TX7","ReferenceData":{"ReferenceItem":{"Key":"QueueTimeoutURL","Value":"https:\/\/internalsandbox.safaricom.co.ke\/mpesa\/b2cresults\/v1\/submit"}}}}

-----------------------------------------------------------------------------------2017-12-07 15:06:36

{"Result":{"ResultType":0,"ResultCode":0,"ResultDesc":"The service request is processed successfully.","OriginatorConversationID":"10219-1826828-1","ConversationID":"AG_20171207_000066c6e6590cb1de4a","TransactionID":"LL761H3TX8","ResultParameters":{"ResultParameter":[{"Key":"TransactionAmount","Value":100},{"Key":"TransactionReceipt","Value":"LL761H3TX8"},{"Key":"ReceiverPartyPublicName","Value":"254708374149 - John Doe"},{"Key":"TransactionCompletedDateTime","Value":"07.12.2017 12:29:09"},{"Key":"B2CUtilityAccountAvailableFunds","Value":2535.00},{"Key":"B2CWorkingAccountAvailableFunds","Value":600000.00},{"Key":"B2CRecipientIsRegisteredCustomer","Value":"Y"},{"Key":"B2CChargesPaidAccountAvailableFunds","Value":0.00}]},"ReferenceData":{"ReferenceItem":{"Key":"QueueTimeoutURL","Value":"https:\/\/internalsandbox.safaricom.co.ke\/mpesa\/b2cresults\/v1\/submit"}}}}

-----------------------------------------------------------------------------------2017-12-07 15:07:54

{"Result":{"ResultType":0,"ResultCode":1,"ResultDesc":"The balance is insufficient for the transaction.","OriginatorConversationID":"10218-1826937-1","ConversationID":"AG_20171207_00005f7b2b3cf5b94f24","TransactionID":"LL771H3TX9","ReferenceData":{"ReferenceItem":{"Key":"QueueTimeoutURL","Value":"https:\/\/internalsandbox.safaricom.co.ke\/mpesa\/b2cresults\/v1\/submit"}}}}

-----------------------------------------------------------------------------------2017-12-07 15:08:56

{"Result":{"ResultType":0,"ResultCode":0,"ResultDesc":"The service request is processed successfully.","OriginatorConversationID":"16952-1810165-1","ConversationID":"AG_20171207_000060cf8abda345f36e","TransactionID":"LL781H3TXA","ResultParameters":{"ResultParameter":[{"Key":"TransactionAmount","Value":500},{"Key":"TransactionReceipt","Value":"LL781H3TXA"},{"Key":"ReceiverPartyPublicName","Value":"254708374149 - John Doe"},{"Key":"TransactionCompletedDateTime","Value":"07.12.2017 12:31:29"},{"Key":"B2CUtilityAccountAvailableFunds","Value":2002.00},{"Key":"B2CWorkingAccountAvailableFunds","Value":600000.00},{"Key":"B2CRecipientIsRegisteredCustomer","Value":"Y"},{"Key":"B2CChargesPaidAccountAvailableFunds","Value":0.00}]},"ReferenceData":{"ReferenceItem":{"Key":"QueueTimeoutURL","Value":"https:\/\/internalsandbox.safaricom.co.ke\/mpesa\/b2cresults\/v1\/submit"}}}}

-----------------------------------------------------------------------------------2017-12-07 15:11:10

{"Result":{"ResultType":0,"ResultCode":0,"ResultDesc":"The service request is processed successfully.","OriginatorConversationID":"16948-1810334-1","ConversationID":"AG_20171207_00005194a6c102ffc912","TransactionID":"LL791H3TXB","ResultParameters":{"ResultParameter":[{"Key":"TransactionAmount","Value":50},{"Key":"TransactionReceipt","Value":"LL791H3TXB"},{"Key":"ReceiverPartyPublicName","Value":"254708374149 - John Doe"},{"Key":"TransactionCompletedDateTime","Value":"07.12.2017 12:33:42"},{"Key":"B2CUtilityAccountAvailableFunds","Value":1919.00},{"Key":"B2CWorkingAccountAvailableFunds","Value":600000.00},{"Key":"B2CRecipientIsRegisteredCustomer","Value":"Y"},{"Key":"B2CChargesPaidAccountAvailableFunds","Value":0.00}]},"ReferenceData":{"ReferenceItem":{"Key":"QueueTimeoutURL","Value":"https:\/\/internalsandbox.safaricom.co.ke\/mpesa\/b2cresults\/v1\/submit"}}}}

-----------------------------------------------------------------------------------2017-12-08 15:08:44



-----------------------------------------------------------------------------------2017-12-14 10:52:16



-----------------------------------------------------------------------------------2018-01-18 21:28:38

{"Result":{"ResultType":0,"ResultCode":2001,"ResultDesc":"The initiator information is invalid.","OriginatorConversationID":"13192-316616-1","ConversationID":"AG_20180118_000045cba852a7628e09","TransactionID":"MAI3AEXS49","ReferenceData":{"ReferenceItem":{"Key":"QueueTimeoutURL","Value":"http:\/\/internalapi.safaricom.co.ke\/mpesa\/b2cresults\/v1\/submit"}}}}

-----------------------------------------------------------------------------------2018-01-23 14:10:02

{"Result":{"ResultType":0,"ResultCode":2001,"ResultDesc":"The initiator information is invalid.","OriginatorConversationID":"6617-844611-1","ConversationID":"AG_20180123_000068f6dbeb56284e74","TransactionID":"MAN4CZJY22","ReferenceData":{"ReferenceItem":{"Key":"QueueTimeoutURL","Value":"http:\/\/internalapi.safaricom.co.ke\/mpesa\/b2cresults\/v1\/submit"}}}}

-----------------------------------------------------------------------------------2018-01-23 14:15:40

{"Result":{"ResultType":0,"ResultCode":2001,"ResultDesc":"The initiator information is invalid.","OriginatorConversationID":"6616-845072-1","ConversationID":"AG_20180123_00006a881e1a6a0c92f2","TransactionID":"MAN2CZNUP2","ReferenceData":{"ReferenceItem":{"Key":"QueueTimeoutURL","Value":"http:\/\/internalapi.safaricom.co.ke\/mpesa\/b2cresults\/v1\/submit"}}}}

-----------------------------------------------------------------------------------2018-01-23 15:56:01

{"Result":{"ResultType":0,"ResultCode":2001,"ResultDesc":"The initiator information is invalid.","OriginatorConversationID":"31905-1454404-1","ConversationID":"AG_20180123_00005247c6812a0d97a8","TransactionID":"MAN6D1NPDQ","ReferenceData":{"ReferenceItem":{"Key":"QueueTimeoutURL","Value":"http:\/\/internalapi.safaricom.co.ke\/mpesa\/b2cresults\/v1\/submit"}}}}

-----------------------------------------------------------------------------------2018-01-23 17:16:58

{"Result":{"ResultType":0,"ResultCode":2001,"ResultDesc":"The initiator information is invalid.","OriginatorConversationID":"6618-860482-1","ConversationID":"AG_20180123_000060a187fbacc24f8e","TransactionID":"MAN3D39I9B","ReferenceData":{"ReferenceItem":{"Key":"QueueTimeoutURL","Value":"http:\/\/internalapi.safaricom.co.ke\/mpesa\/b2cresults\/v1\/submit"}}}}

-----------------------------------------------------------------------------------2018-01-25 13:42:29

{"Result":{"ResultType":0,"ResultCode":1,"ResultDesc":"The balance is insufficient for the transaction.","OriginatorConversationID":"6618-1051574-1","ConversationID":"AG_20180125_0000525bd91192756d34","TransactionID":"MAP0E4QI7Q","ReferenceData":{"ReferenceItem":{"Key":"QueueTimeoutURL","Value":"http:\/\/internalapi.safaricom.co.ke\/mpesa\/b2cresults\/v1\/submit"}}}}

-----------------------------------------------------------------------------------2018-01-25 13:43:02

{"Result":{"ResultType":0,"ResultCode":1,"ResultDesc":"The balance is insufficient for the transaction.","OriginatorConversationID":"13192-965840-1","ConversationID":"AG_20180125_00006248842d4691da0e","TransactionID":"MAP9E4R7DJ","ReferenceData":{"ReferenceItem":{"Key":"QueueTimeoutURL","Value":"http:\/\/internalapi.safaricom.co.ke\/mpesa\/b2cresults\/v1\/submit"}}}}

-----------------------------------------------------------------------------------2018-01-25 13:44:15

{"Result":{"ResultType":0,"ResultCode":1,"ResultDesc":"The balance is insufficient for the transaction.","OriginatorConversationID":"6618-1051574-1","ConversationID":"AG_20180125_0000525bd91192756d34","TransactionID":"MAP0E4QI7Q","ReferenceData":{"ReferenceItem":{"Key":"QueueTimeoutURL","Value":"http:\/\/internalapi.safaricom.co.ke\/mpesa\/b2cresults\/v1\/submit"}}}}

-----------------------------------------------------------------------------------2018-01-29 13:09:10

{"Result":{"ResultType":0,"ResultCode":1,"ResultDesc":"The balance is insufficient for the transaction.","OriginatorConversationID":"10059-91815-1","ConversationID":"AG_20180129_00005e38a091c46356ff","TransactionID":"MAT1GFOW5J","ReferenceData":{"ReferenceItem":{"Key":"QueueTimeoutURL","Value":"http:\/\/internalapi.safaricom.co.ke\/mpesa\/b2cresults\/v1\/submit"}}}}